-- Merging decision tree log ---
manifest
ADDED from /Users/azinova/Desktop/Live Projects/Dailyhelp_driver_/androidsupportv7appcompat/src/main/AndroidManifest.xml:16:1-20:12
INJECTED from /Users/azinova/Desktop/Live Projects/Dailyhelp_driver_/androidsupportv7appcompat/src/main/AndroidManifest.xml:16:1-20:12
INJECTED from /Users/azinova/Desktop/Live Projects/Dailyhelp_driver_/androidsupportv7appcompat/src/main/AndroidManifest.xml:16:1-20:12
	package
		ADDED from /Users/azinova/Desktop/Live Projects/Dailyhelp_driver_/androidsupportv7appcompat/src/main/AndroidManifest.xml:17:11-49
		INJECTED from /Users/azinova/Desktop/Live Projects/Dailyhelp_driver_/androidsupportv7appcompat/src/main/AndroidManifest.xml
		INJECTED from /Users/azinova/Desktop/Live Projects/Dailyhelp_driver_/androidsupportv7appcompat/src/main/AndroidManifest.xml
	xmlns:android
		ADDED from /Users/azinova/Desktop/Live Projects/Dailyhelp_driver_/androidsupportv7appcompat/src/main/AndroidManifest.xml:16:11-69
uses-sdk
ADDED from /Users/azinova/Desktop/Live Projects/Dailyhelp_driver_/androidsupportv7appcompat/src/main/AndroidManifest.xml:18:5-42
INJECTED from /Users/azinova/Desktop/Live Projects/Dailyhelp_driver_/androidsupportv7appcompat/src/main/AndroidManifest.xml:18:5-42
INJECTED from /Users/azinova/Desktop/Live Projects/Dailyhelp_driver_/androidsupportv7appcompat/src/main/AndroidManifest.xml:18:5-42
INJECTED from /Users/azinova/Desktop/Live Projects/Dailyhelp_driver_/androidsupportv7appcompat/src/main/AndroidManifest.xml:18:5-42
INJECTED from /Users/azinova/Desktop/Live Projects/Dailyhelp_driver_/androidsupportv7appcompat/src/main/AndroidManifest.xml:18:5-42
	android:targetSdkVersion
		INJECTED from /Users/azinova/Desktop/Live Projects/Dailyhelp_driver_/androidsupportv7appcompat/src/main/AndroidManifest.xml
		ADDED from /Users/azinova/Desktop/Live Projects/Dailyhelp_driver_/androidsupportv7appcompat/src/main/AndroidManifest.xml:18:5-42
		INJECTED from /Users/azinova/Desktop/Live Projects/Dailyhelp_driver_/androidsupportv7appcompat/src/main/AndroidManifest.xml
	android:minSdkVersion
		ADDED from /Users/azinova/Desktop/Live Projects/Dailyhelp_driver_/androidsupportv7appcompat/src/main/AndroidManifest.xml:18:15-40
		INJECTED from /Users/azinova/Desktop/Live Projects/Dailyhelp_driver_/androidsupportv7appcompat/src/main/AndroidManifest.xml
		INJECTED from /Users/azinova/Desktop/Live Projects/Dailyhelp_driver_/androidsupportv7appcompat/src/main/AndroidManifest.xml
application
ADDED from /Users/azinova/Desktop/Live Projects/Dailyhelp_driver_/androidsupportv7appcompat/src/main/AndroidManifest.xml:19:5-20
